- Author: Peterson Yuhala

- This folder contains the java files generated by the polytaint partitioning module
- For full native images, only one file: Trusted.java is created.
- For partitioned native images, two files: Trusted.java and Untrusted.java are created.